CSS - Cascading Style Sheet

1. Selectors
    ● Element
    ● Class
    ● ID
2. Element selectors
●
asd
3. Class selectors
4. ID selectors
5. External style sheets
    ● <link rel=”” src=””/>
6. borders
7. padding
8. margin
9. CSS Box model
    ● CPBM
10. colors
    ● Color name
    ● Rgb
    ● rgba
    ● hexa
11. positioning
    ● Relative
    ● Absolute
    ● fixed
12. Text alignment/styling
